Gráficos - FCM
…
## Joining with `by = join_by(Cod)`

df

## Simple feature collection with 7095 features and 8 fields (with 11 geometries empty)
## Geometry type: MULTIPOINT
## Dimension:     XY
## Bounding box:  xmin: -53.05916 ymin: -25.01691 xmax: -44.32152 ymax: -19.94291
## Geodetic CRS:  SIRGAS 2000
## # A tibble: 7,095 × 9
##    CD_GEOCODM                geometry Cod    municipio     Ano   Casos Municipio
##    <chr>             <MULTIPOINT [°]> <chr>  <chr>         <chr> <int> <chr>    
##  1 3552007    ((-44.85215 -22.66442)) 355200 355200 SILVE… 2014      1 Silveira…
##  2 3552007    ((-44.85215 -22.66442)) 355200 355200 SILVE… 2015     18 Silveira…
##  3 3552007    ((-44.85215 -22.66442)) 355200 355200 SILVE… 2016      1 Silveira…
##  4 3552007    ((-44.85215 -22.66442)) 355200 355200 SILVE… 2017      1 Silveira…
##  5 3552007    ((-44.85215 -22.66442)) 355200 355200 SILVE… 2018      1 Silveira…
##  6 3552007    ((-44.85215 -22.66442)) 355200 355200 SILVE… 2019     30 Silveira…
##  7 3552007    ((-44.85215 -22.66442)) 355200 355200 SILVE… 2020     14 Silveira…
##  8 3552007    ((-44.85215 -22.66442)) 355200 355200 SILVE… 2021      1 Silveira…
##  9 3552007    ((-44.85215 -22.66442)) 355200 355200 SILVE… 2022      1 Silveira…
## 10 3552007    ((-44.85215 -22.66442)) 355200 355200 SILVE… 2023      1 Silveira…
## # ℹ 7,085 more rows
## # ℹ 2 more variables: Populacao <int>, taxa <dbl>
…
